{
    "Mumbai Indians": 102,
    "Rising Pune Supergiants": 101,
    "Delhi Daredevils": 109,
    "Kolkata Knight Riders": 130,
    "Kings XI Punjab": 83,
    "Gujarat Lions": 132,
    "Royal Challengers Bangalore": 118,
    "Sunrisers Hyderabad": 124
}