{
    "RN ten Doeschate": {
        "run": 4,
        "ball": 7,
        "Economy": "3.43"
    },
    "J Yadav": {
        "run": 29,
        "ball": 42,
        "Economy": "4.14"
    },
    "V Kohli": {
        "run": 10,
        "ball": 11,
        "Economy": "5.45"
    },
    "R Ashwin": {
        "run": 229,
        "ball": 240,
        "Economy": "5.72"
    },
    "S Nadeem": {
        "run": 43,
        "ball": 44,
        "Economy": "5.86"
    },
    "Z Khan": {
        "run": 159,
        "ball": 155,
        "Economy": "6.15"
    },
    "Parvez Rasool": {
        "run": 31,
        "ball": 30,
        "Economy": "6.20"
    },
    "MC Henriques": {
        "run": 164,
        "ball": 157,
        "Economy": "6.27"
    },
    "MA Starc": {
        "run": 306,
        "ball": 272,
        "Economy": "6.75"
    },
    "M de Lange": {
        "run": 30,
        "ball": 26,
        "Economy": "6.92"
    }
}